Getting Started
…
## Parsed with column specification:
## cols(
##   country = col_character(),
##   region = col_character(),
##   gdp_2017 = col_double(),
##   pop_2017 = col_double(),
##   area = col_double(),
##   rail = col_double(),
##   road = col_double()
## )

africa

## # A tibble: 53 x 7
##    country                region     gdp_2017 pop_2017    area  rail   road
##    <chr>                  <chr>         <dbl>    <dbl>   <dbl> <dbl>  <dbl>
##  1 Algeria                north   99722535234 41063753 2381740  4691 1.14e5
##  2 Angola                 central 31374141168 26655513 1246700    NA 5.14e4
##  3 Benin                  west     4732594367 11458611  114760   758 1.90e4
##  4 Botswana               south   11443275218  2343981  581730   888 2.58e4
##  5 Burkina Faso           west     7013022439 19173322  274220   622 1.53e4
##  6 Burundi                east     1215021410 11936481   27830    NA 1.23e4
##  7 Cameroon               central 17940338306 24513689  475440   977 2.89e4
##  8 Cape Verde             west     1129263677   533468    4030    NA 1.35e3
##  9 Central African Repub central   873967756  5098826  622980    NA 2.03e4
## 10 Chad                   central  4150723012 14965482 1284000    NA 4.00e4
## #  with 43 more rows
…
africa[africa$country == "Sudan", ]

## # A tibble: 1 x 7
##   country region    gdp_2017 pop_2017     area  rail  road
##   <chr>   <chr>        <dbl>    <dbl>    <dbl> <dbl> <dbl>
## 1 Sudan   north  27326589056 42166323 1879358.  4313 11900

Note the == for testing for equality, and leaving the index after , empty means to select all columns.

africa[africa$road < mean(africa$road), c("country", "road")]  

## # A tibble: 35 x 2
##    country                    road
##    <chr>                     <dbl>
##  1 Benin                    19000 
##  2 Botswana                 25798 
##  3 Burkina Faso             15272.
##  4 Burundi                  12322 
##  5 Cameroon                 28857 
##  6 Cape Verde                1350 
##  7 Central African Republic 20278 
##  8 Chad                     40000 
##  9 Comoros                    880 
## 10 Congo, Rep.              17000 
## #  with 25 more rows

Note to select multiple columns by name, we put them in a vector with c().

Transformation

We can use vectors (variables) in expressions, and also create new ones:

africa$gdp_per_cap <- africa$gdp_2017/africa$pop_2017
africa

## # A tibble: 53 x 8
##    country       region   gdp_2017 pop_2017   area  rail   road gdp_per_cap
##    <chr>         <chr>       <dbl>    <dbl>  <dbl> <dbl>  <dbl>       <dbl>
##  1 Algeria       north     9.97e10 41063753 2.38e6  4691 1.14e5       2428.
##  2 Angola        central   3.14e10 26655513 1.25e6    NA 5.14e4       1177.
##  3 Benin         west      4.73e 9 11458611 1.15e5   758 1.90e4        413.
##  4 Botswana      south     1.14e10  2343981 5.82e5   888 2.58e4       4882.
##  5 Burkina Faso  west      7.01e 9 19173322 2.74e5   622 1.53e4        366.
##  6 Burundi       east      1.22e 9 11936481 2.78e4    NA 1.23e4        102.
##  7 Cameroon      central   1.79e10 24513689 4.75e5   977 2.89e4        732.
##  8 Cape Verde    west      1.13e 9   533468 4.03e3    NA 1.35e3       2117.
##  9 Central Afri central   8.74e 8  5098826 6.23e5    NA 2.03e4        171.
## 10 Chad          central   4.15e 9 14965482 1.28e6    NA 4.00e4        277.
## #  with 43 more rows
…
